…
its very clear that Trump has the lowest number of donors the difference btween hem and sanders,Hillary are very huge,However the important things that I notice in this diagram that sanders are very close to Hillary,in other hand Hillary are received more than 50%of donations than sanders so this leading us to explore the distribution of amount of each of them:

## Source: local data frame [4,341 x 4]
## Groups: cand_nm [3]
## 
##                    cand_nm contb_receipt_amt Total_d donor_nm
##                     <fctr>             <dbl>   <dbl>    <int>
## 1  Clinton, Hillary Rodham              0.09    0.09        1
## 2  Clinton, Hillary Rodham              0.12    0.12        1
## 3  Clinton, Hillary Rodham              0.29    0.29        1
## 4  Clinton, Hillary Rodham              0.31    0.31        1
## 5  Clinton, Hillary Rodham              0.44    0.44        1
## 6  Clinton, Hillary Rodham              0.82    0.82        1
## 7  Clinton, Hillary Rodham              0.92    0.92        1
## 8         Sanders, Bernard              1.02    1.02        1
## 9         Sanders, Bernard              1.05    1.05        1
## 10        Sanders, Bernard              1.08    1.08        1
## # ... with 4,331 more rows
…
